{
  "page": 1,
  "total_results": 22,
  "total_pages": 2,
  "results": [
    {
      "popularity": 19.422,
      "id": 16780,
      "video": false,
      "vote_count": 286,
      "vote_average": 3.9,
      "title": "Texas Chainsaw Massacre: The Next Generation",
      "release_date": "1995-10-21",
      "original_language": "en",
      "original_title": "Texas Chainsaw Massacre: The Next Generation",
      "genre_ids": [35, 27, 53],
      "backdrop_path": "/e2O5ALdV2QCbedpOKamtOUYApcS.jpg",
      "adult": false,
      "overview": "",
      "poster_path": "/oJpNV4CjJ7GnBgtAJMxxUP0EpOt.jpg"
    },
    {
      "popularity": 15.411,
      "id": 10329,
      "video": false,
      "vote_count": 524,
      "vote_average": 5.4,
      "title": "コンゴ",
      "release_date": "1995-10-21",
      "original_language": "en",
      "original_title": "Congo",
      "genre_ids": [28, 12, 878],
      "backdrop_path": "/AhRgsiYnu0cDVqarGsOqXga7Syd.jpg",
      "adult": false,
      "overview": "",
      "poster_path": "/9mqMitlulCpsttWr2fVzXFlbPKm.jpg"
    },
    {
      "popularity": 14.92,
      "id": 8963,
      "video": false,
      "vote_count": 1038,
      "vote_average": 7.1,
      "title": "クリムゾン・タイド",
      "release_date": "1995-10-14",
      "original_language": "en",
      "original_title": "Crimson Tide",
      "genre_ids": [53, 28, 10752],
      "backdrop_path": "/OIU6bg5M6GrpsNOj4HVFZBWhbz.jpg",
      "adult": false,
      "overview": "「トップガン」のトニー・スコットが挑むポリティカル・サスペンス。クーデターが勃発しロシア情勢は一気に悪化、反乱軍が核施設を制圧した事で世界は第三次大戦の危機を迎えた。米海軍はベテランの艦長と新任の副長を乗せた原潜アラバマを派遣するが、核攻撃準備の指令をめぐって艦長と副長は対立してしまう……。",
      "poster_path": "/xf3Wu2GkQs9JdZJ3gqvxCd2u1N9.jpg"
    },
    {
      "popularity": 6.584,
      "vote_count": 36,
      "video": false,
      "poster_path": "/1BQxqHmxIf3uknIf3RQg1hXqWvF.jpg",
      "id": 18837,
      "adult": false,
      "backdrop_path": "/mpAPZ7hSVcF4oyqjM4EjAGmQVrd.jpg",
      "original_language": "ja",
      "original_title": "マクロスプラス　ＭＯＶＩＥ　ＥＤＩＴＩＯＮ",
      "genre_ids": [28, 12, 16, 878],
      "title": "マクロスプラス　MOVIE EDITION",
      "vote_average": 7,
      "overview": "ゼントラーディのボルド艦隊による地球襲撃から３０年を経たＡＤ２０４０年。地球から１０数光年を隔てた惑星・エデンのニューエドワーズ基地にて「ＡＶＦ（次期主力全領域戦闘機）」のトライアルが行われていた。そこへＹＦ－１９のテストパイロットとして「イサム･ダイソン」が転属される。だが、彼が基地に赴くと、そこには彼が良く知っている男が競争相手であるＹＦ－２１のパイロット務めていた。ガルド･ゴア･ボーマン…かつてのイサムの親友であり、またライバルでもあった男…。",
      "release_date": "1995-10-06"
    },
    {
      "popularity": 3.886,
      "vote_count": 3,
      "video": false,
      "poster_path": "/tAuiDcLesd7je5IyQl1iZScFMKc.jpg",
      "id": 45932,
      "adult": false,
      "backdrop_path": null,
      "original_language": "ja",
      "original_title": "マクロス7 -銀河がオレを呼んでいる!-",
      "genre_ids": [28, 16, 10402, 878],
      "title": "劇場版 マクロス7 銀河がオレを呼んでいる！",
      "vote_average": 3,
      "overview": "",
      "release_date": "1995-10-07"
    },
    {
      "popularity": 2.522,
      "id": 154413,
      "video": false,
      "vote_count": 11,
      "vote_average": 5.4,
      "title": "Be Tartib ya Bedoun-e Tartib",
      "release_date": "1995-10-13",
      "original_language": "fa",
      "original_title": "Be Tartib ya Bedoun-e Tartib",
      "genre_ids": [18],
      "backdrop_path": "/ibRN42m6anWm8N9HQbkHWRUffAB.jpg",
      "adult": false,
      "overview": "",
      "poster_path": "/z0KI3Dbd2MHui1lBhbYJFMbP7mO.jpg"
    },
    {
      "popularity": 0.658,
      "vote_count": 0,
      "video": false,
      "poster_path": null,
      "id": 340635,
      "adult": false,
      "backdrop_path": null,
      "original_language": "ja",
      "original_title": "人でなしの恋",
      "genre_ids": [18],
      "title": "人でなしの恋",
      "vote_average": 0,
      "overview": "",
      "release_date": "1995-10-28"
    },
    {
      "popularity": 0.627,
      "vote_count": 0,
      "video": false,
      "poster_path": null,
      "id": 391564,
      "adult": false,
      "backdrop_path": null,
      "original_language": "ja",
      "original_title": "双頭の悪魔　真犯人は誰だ？",
      "genre_ids": [9648],
      "title": "双頭の悪魔　真犯人は誰だ？",
      "vote_average": 0,
      "overview": "",
      "release_date": "1995-10-20"
    },
    {
      "popularity": 1.127,
      "vote_count": 0,
      "video": false,
      "poster_path": null,
      "id": 401069,
      "adult": false,
      "backdrop_path": null,
      "original_language": "ja",
      "original_title": "キャンプで逢いましょう",
      "genre_ids": [35, 10749],
      "title": "キャンプで逢いましょう",
      "vote_average": 0,
      "overview": "",
      "release_date": "1995-10-07"
    },
    {
      "popularity": 0.991,
      "vote_count": 4,
      "video": false,
      "poster_path": null,
      "id": 317661,
      "adult": false,
      "backdrop_path": null,
      "original_language": "ja",
      "original_title": "エンドレス・ワルツ",
      "genre_ids": [18],
      "title": "エンドレス・ワルツ",
      "vote_average": 7,
      "overview": "",
      "release_date": "1995-10-06"
    },
    {
      "popularity": 0.6,
      "vote_count": 0,
      "video": false,
      "poster_path": "/fqCbhxoDWWGF4hWckZb0SdGPhDD.jpg",
      "id": 597881,
      "adult": false,
      "backdrop_path": null,
      "original_language": "ja",
      "original_title": "PIPI　ピピ とべないホタル",
      "genre_ids": [16, 10751],
      "title": "PIPI　ピピ とべないホタル",
      "vote_average": 0,
      "overview": "",
      "release_date": "1995-10-01"
    },
    {
      "popularity": 0.6,
      "vote_count": 0,
      "video": false,
      "poster_path": null,
      "id": 309034,
      "adult": false,
      "backdrop_path": null,
      "original_language": "ja",
      "original_title": "バースデイプレゼント",
      "genre_ids": [18],
      "title": "バースデイプレゼント",
      "vote_average": 0,
      "overview": "",
      "release_date": "1995-10-28"
    },
    {
      "popularity": 0.845,
      "vote_count": 0,
      "video": false,
      "poster_path": "/kzaKLDRej2UfdUiTK3OLzEPrb6N.jpg",
      "id": 545469,
      "adult": false,
      "backdrop_path": null,
      "original_language": "ja",
      "original_title": "眠れる美女",
      "genre_ids": [18],
      "title": "眠れる美女",
      "vote_average": 0,
      "overview": "",
      "release_date": "1995-10-14"
    },
    {
      "popularity": 0.6,
      "id": 752534,
      "video": false,
      "vote_count": 0,
      "vote_average": 0,
      "title": "Tupada ’92: The Philippines in the Year of the Elections",
      "release_date": "1995-10-01",
      "original_language": "en",
      "original_title": "Tupada ’92: The Philippines in the Year of the Elections",
      "genre_ids": [],
      "backdrop_path": null,
      "adult": false,
      "overview": "",
      "poster_path": null
    },
    {
      "popularity": 0.6,
      "vote_count": 0,
      "video": false,
      "poster_path": "/phSfqxQzCzFchwdHYfXS9DVzrrD.jpg",
      "id": 750275,
      "adult": false,
      "backdrop_path": null,
      "original_language": "ja",
      "original_title": "アリスサンクチュアリ",
      "genre_ids": [],
      "title": "アリスサンクチュアリ",
      "vote_average": 0,
      "overview": "",
      "release_date": "1995-10-01"
    },
    {
      "popularity": 0.6,
      "vote_count": 0,
      "video": false,
      "poster_path": "/gYVj1Pdbsvde8VKWwnGBKrT2I4t.jpg",
      "id": 730302,
      "adult": false,
      "backdrop_path": null,
      "original_language": "en",
      "original_title": "影技 SHADOW SKILL OVA",
      "genre_ids": [28, 12, 16],
      "title": "影技 SHADOW SKILL OVA",
      "vote_average": 0,
      "overview": "",
      "release_date": "1995-10-21"
    },
    {
      "popularity": 0.6,
      "vote_count": 0,
      "video": false,
      "poster_path": "/vNHEWTN95YQHHLTJzAHBmroInJv.jpg",
      "id": 630336,
      "adult": false,
      "backdrop_path": null,
      "original_language": "ja",
      "original_title": "濡れ事師",
      "genre_ids": [18],
      "title": "濡れ事師",
      "vote_average": 0,
      "overview": "",
      "release_date": "1995-10-06"
    },
    {
      "popularity": 0.6,
      "vote_count": 0,
      "video": false,
      "poster_path": "/373HwXDSTyvCSEQ2u2I1Z1ixsTp.jpg",
      "id": 586634,
      "adult": false,
      "backdrop_path": null,
      "original_language": "ja",
      "original_title": "三たびの海峡",
      "genre_ids": [18],
      "title": "三たびの海峡",
      "vote_average": 0,
      "overview": "",
      "release_date": "1995-10-11"
    },
    {
      "popularity": 0.6,
      "vote_count": 0,
      "video": false,
      "poster_path": "/ePwPJSXTFgQgAdHInHcP0WbT5Wj.jpg",
      "id": 542696,
      "adult": false,
      "backdrop_path": null,
      "original_language": "cn",
      "original_title": "旅するパオジャンフー",
      "genre_ids": [99, 18],
      "title": "旅するパオジャンフー",
      "vote_average": 0,
      "overview": "",
      "release_date": "1995-10-28"
    },
    {
      "popularity": 0.6,
      "vote_count": 0,
      "video": false,
      "poster_path": "/yU21hcAB5rxtMqHYIYZZFRvkT3m.jpg",
      "id": 483940,
      "adult": false,
      "backdrop_path": null,
      "original_language": "ja",
      "original_title": "スクエアワールド",
      "genre_ids": [27],
      "title": "スクエアワールド",
      "vote_average": 0,
      "overview": "",
      "release_date": "1996-08-07"
    }
  ]
}
