{
  "page": 1,
  "total_results": 71,
  "total_pages": 4,
  "results": [
    {
      "popularity": 80.581,
      "vote_count": 22206,
      "video": false,
      "poster_path": "/fHj28ZFhZWlFqkdaDFJYnDBPAXS.jpg",
      "id": 19995,
      "adult": false,
      "backdrop_path": "/bIL7ENqh1egWTxN41sM2W42JqPc.jpg",
      "original_language": "en",
      "original_title": "Avatar",
      "genre_ids": [28, 12, 14, 878],
      "title": "アバター",
      "vote_average": 7.5,
      "overview": "西暦2154年。人類は惑星ポリフェマスの最大衛星パンドラに鉱物採掘基地を開いている。この星は熱帯雨林のような未開のジャングル覆われていて獰猛な動物と”ナヴィ”という先住種族が暮らしており、森の奥には地球のエネルギー問題解決の鍵となる希少鉱物の鉱床がある。この星の大気は人間に適さないので屋外活動にはマスクを着用する必要があり、ナヴィと意思疎通し交渉するために人間とナヴィの遺伝子を組み合わせて人間が作りあげた”アバター”が用いられた。",
      "release_date": "2010-10-16"
    },
    {
      "popularity": 37.199,
      "vote_count": 11716,
      "video": false,
      "poster_path": "/u7gGyzJntTRwiiaWEOrgHPzEBfI.jpg",
      "id": 20352,
      "adult": false,
      "backdrop_path": "/euCnMxNRlHNxA4f9BMnWbmxPOse.jpg",
      "original_language": "en",
      "original_title": "Despicable Me",
      "genre_ids": [16, 35, 10751],
      "title": "怪盗グルーの月泥棒",
      "vote_average": 7.2,
      "overview": "史上最大級の泥棒を企てている嫌味な怪盗グルー。バナナでできた仲間のミニオンたちと共に、秘密基地のある家に住んでいた。月泥棒を企てるグルーたちだったが、ライバルの泥棒に大事な秘密兵器を盗まれてしまう。そこでライバルの家に出入りする孤児の3姉妹を利用しようとしたグルーだったが、なぜか3姉妹と共同生活を送ることとなり……。",
      "release_date": "2010-10-29"
    },
    {
      "popularity": 33.253,
      "vote_count": 1942,
      "video": false,
      "poster_path": "/qHCZ6LjtmqWDfXXN28TlIC9OppK.jpg",
      "id": 41439,
      "adult": false,
      "backdrop_path": "/vqaN51sjqcMKYPCb5SMA2rlRwO1.jpg",
      "original_language": "en",
      "original_title": "Saw 3D",
      "genre_ids": [80, 27],
      "title": "ソウ ザ・ファイナル",
      "vote_average": 6,
      "overview": "ジルの罠を生き抜いたホフマン刑事はジルの殺害に執念を燃やす。ジルは警察に保護を求めるが、ホフマンの魔の手は確実に彼女に忍び寄る…。ジグソウのゲームを生き残ったボビー・デイゲンは、その経験談をTVや著書などで語り、カリスマ的な人気を得ていた。ジグソウのゲームの生還者の会に参加した彼は、あのゴードン医師と出会い疑いの目を向けられる。ゲームの終焉は来た！ 「ゲームオーバー！」を最後に言うのは誰なのか？！",
      "release_date": "2010-10-30"
    },
    {
      "popularity": 24.732,
      "vote_count": 5582,
      "video": false,
      "poster_path": "/y5tt5vU62TZfjItZVGIXI8AODps.jpg",
      "id": 27578,
      "adult": false,
      "backdrop_path": "/gDRlw7GoA0OoLvijXNCTTdtAtNX.jpg",
      "original_language": "en",
      "original_title": "The Expendables",
      "genre_ids": [28, 12, 53],
      "title": "エクスペンダブルズ",
      "vote_average": 6.1,
      "overview": "ソマリア沖で起きた海賊によるシージャック解決の仕事を受けたバーニー・ロス率いる傭兵部隊「エクスペンダブルズ」は、身代金を用いた交渉を行うもメンバーの一人であるガンナー・ヤンセンの暴走により、激しい銃撃戦を展開することになる。海賊の殲滅には成功するも薬物依存症に陥っていたヤンセンをロスはチームから放逐することを決める。  数日後、チームのマネージャーであるツールから仕事の依頼を伝えられたロスは会合場所でチャーチという謎の男から南アメリカの小国、ヴィレーナの独裁者であるガルザ将軍の排除を依頼される。ロスはメンバーの一人であるリー・クリスマスと共に同国に偵察に赴く",
      "release_date": "2010-10-16"
    },
    {
      "popularity": 19.782,
      "vote_count": 2474,
      "video": false,
      "poster_path": "/2U1FvIwIxiBIlkI7Xv8vX1otexm.jpg",
      "id": 14756,
      "adult": false,
      "backdrop_path": "/dxpjudu5LrT2YpPgBVFPHlW3L9.jpg",
      "original_language": "cn",
      "original_title": "葉問",
      "genre_ids": [28, 18, 36],
      "title": "イップ・マン　序章",
      "vote_average": 7.7,
      "overview": "1930年代の中国広東省佛山。家族と共に平穏な日々を送る詠春拳の達人、イップ・マン。その実力と人格で人々の尊敬を集める一方、彼を倒して名を挙げようとする武術家たちも多く、心ならずも手合わせをしては、いずれも一ひねりにしてしまうのだった。ところが折しも日中戦争が勃発、佛山を占領した日本軍によって家屋を奪われ、窮乏を強いられる。やがて空手の名手でもある日本軍将校・三浦がイップ・マンの実力に目を付け、日本兵たちに中国武術を教えるよう迫るのだが…。",
      "release_date": "2010-10-23"
    },
    {
      "popularity": 18.782,
      "vote_count": 1554,
      "video": false,
      "poster_path": "/elF8DE7ZD23TPtZR5y0ipj3PpvP.jpg",
      "id": 19898,
      "adult": false,
      "backdrop_path": "/2M5V8VcK02o4R5cxe7Ew1ltaxKr.jpg",
      "original_language": "en",
      "original_title": "Pandorum",
      "genre_ids": [28, 27, 9648, 878, 53],
      "title": "パンドラム",
      "vote_average": 6.5,
      "overview": "西暦2174年、地球は滅亡を迎えようとしていた。そんな中、ある惑星へ移住するため、6万人の人類が宇宙船エリジウムで出発。やがて、二人の飛行士が冷凍睡眠から目覚めるが、二人は記憶を失ってしまっていた。そして、船内にいるはずのない恐ろしい何かが存在することに気付く。",
      "release_date": "2010-10-01"
    },
    {
      "popularity": 11.052,
      "vote_count": 225,
      "video": false,
      "poster_path": "/xl4x8aILt9v91TUOKXHIVDZwkXy.jpg",
      "id": 36950,
      "adult": false,
      "backdrop_path": "/aaSYQOoIlDAeCzsKYB47qe2l4Oe.jpg",
      "original_language": "en",
      "original_title": "You Don't Know Jack",
      "genre_ids": [18, 10770],
      "title": "You Don't Know Jack",
      "vote_average": 7,
      "overview": "",
      "release_date": "2010-10-03"
    },
    {
      "popularity": 13.406,
      "vote_count": 602,
      "video": false,
      "poster_path": "/vLhDN4GleAjfs7chWydYmWfPdV7.jpg",
      "id": 58496,
      "adult": false,
      "backdrop_path": "/ycNyvi9gk4ZI2NLk4KBbseNZbfN.jpg",
      "original_language": "en",
      "original_title": "Senna",
      "genre_ids": [99],
      "title": "Senna",
      "vote_average": 8.2,
      "overview": "",
      "release_date": "2010-10-07"
    },
    {
      "popularity": 10.909,
      "vote_count": 1066,
      "video": false,
      "poster_path": "/vhoM2LmcPlzcgBIztqqsSAYwaF7.jpg",
      "id": 34653,
      "adult": false,
      "backdrop_path": "/4rHZyoFxGxvkMNiLFEqwm19HCtc.jpg",
      "original_language": "en",
      "original_title": "A Single Man",
      "genre_ids": [18, 10749],
      "title": "シングルマン",
      "vote_average": 7.4,
      "overview": "稀代のファッションデザイナー、トム・フォードが初監督を務めたドラマ。16年間共に暮らしたパートナーを交通事故で亡くしたジョージは、悲しみを終らせるために自殺を決意する。しかし、死を決意した瞬間から、世界の見え方が少しずつ変わり始め…。",
      "release_date": "2010-10-02"
    },
    {
      "popularity": 11.956,
      "vote_count": 171,
      "video": false,
      "poster_path": "/tuIO78Emr8katcv9sk4HONeLdNT.jpg",
      "id": 71883,
      "adult": false,
      "backdrop_path": "/umLrEqxO3e4CtgMCsskRvkLp04Y.jpg",
      "original_language": "ja",
      "original_title": "レッドライン",
      "genre_ids": [28, 16, 878],
      "title": "REDLINE",
      "vote_average": 7.4,
      "overview": "見た目はリーゼントでクールに決めるがシャイな純情男のJPは、4輪ドライブのスペシャリスト。少年時代に一目ぼれしたソノシーの影響でレースを始め、宇宙最速の座を賭けた5年に1度の祭典、REDLINEを制することを夢見ていた。天才メカニックで親友のフリズビーたちの応援を受け、JPは、戦車さながらの武装改造を施す個性豊かなライバルたちに立ち向かう。",
      "release_date": "2010-10-09"
    },
    {
      "popularity": 10.913,
      "vote_count": 64,
      "video": false,
      "poster_path": "/7puPuSeje8315Pbdxzo8bxHD6EB.jpg",
      "id": 59437,
      "adult": false,
      "backdrop_path": "/406392mWmPaWUDYM8LkC94Osas6.jpg",
      "original_language": "en",
      "original_title": "Beautiful Boy",
      "genre_ids": [18],
      "title": "Beautiful Boy",
      "vote_average": 6.1,
      "overview": "",
      "release_date": "2010-10-24"
    },
    {
      "popularity": 8.145,
      "id": 62728,
      "video": false,
      "vote_count": 72,
      "vote_average": 5.9,
      "title": "Brighton Rock",
      "release_date": "2010-10-26",
      "original_language": "en",
      "original_title": "Brighton Rock",
      "genre_ids": [18, 53, 80],
      "backdrop_path": null,
      "adult": false,
      "overview": "",
      "poster_path": "/xCeXdh001WG85QX2FEE4TVZd3wZ.jpg"
    },
    {
      "popularity": 5.082,
      "id": 59467,
      "video": false,
      "vote_count": 5,
      "vote_average": 7.1,
      "title": "映画 ハートキャッチプリキュア！花の都でファッションショー・・・ですか！？",
      "release_date": "2010-10-30",
      "original_language": "ja",
      "original_title": "映画 ハートキャッチプリキュア！花の都でファッションショー・・・ですか！？",
      "genre_ids": [16],
      "backdrop_path": "/t1p0jQUmazMZ96hptpeVdks2upf.jpg",
      "adult": false,
      "overview": "えりかの母さくらがファッションショーを行うためパリに向かうことになり、オープン記念のショーではつぼみ達がファッションモデルとして参加することに。しかし、そのパリでは伝説上の怪物である「狼男」が出現するという噂がささやかれていた。  そんな中、砂漠の使徒に追われる謎の少年オリヴィエを助けたつぼみ達。彼を追っているのは、かつて封印されたと言われる砂漠の使徒・サラマンダー男爵。彼は不思議な力を持つオリヴィエを利用して世界を破壊しようと企む。",
      "poster_path": "/9Ufqnk37owXUTxNQd3fXEIL4pRM.jpg"
    },
    {
      "popularity": 7.288,
      "vote_count": 17,
      "video": false,
      "poster_path": "/9VCJYVqRjFIqxdLy2YpmjbrMlko.jpg",
      "id": 63064,
      "adult": false,
      "backdrop_path": "/flzOdiJSBE4yJSgI4DbdOHQBgtr.jpg",
      "original_language": "zh",
      "original_title": "觀音山",
      "genre_ids": [18, 10749],
      "title": "觀音山",
      "vote_average": 6.8,
      "overview": "",
      "release_date": "2010-10-24"
    },
    {
      "popularity": 3.572,
      "vote_count": 4,
      "video": false,
      "poster_path": "/7LF8SXWW0KOrdA84ryhmE8WA2by.jpg",
      "id": 55431,
      "adult": false,
      "backdrop_path": null,
      "original_language": "ja",
      "original_title": "劇場版 ブレイク ブレイド　第三章「凶刃ノ痕」",
      "genre_ids": [28, 16, 14],
      "title": "劇場版 ブレイク ブレイド　第三章「凶刃ノ痕」",
      "vote_average": 5.6,
      "overview": "親友ホズルの国を守るため、クリシュナ軍に正式に入隊したライガット。  同時にデルフィングの大改修が進められる。  リィを失ったワルキウレス部隊は復讐を誓い、ビノンテン第３次攻撃の準備を進めていく。  その動きを捉え、反攻に出るクリシュナ軍。  戦場で人の命を奪う覚悟を決められないまま、ゼスの駆るエルテーミスに突撃してゆくライガット。  一方アテネスでは?戦争の天才?と謳われたボルキュス将軍が動き始めていた…。",
      "release_date": "2010-10-28"
    },
    {
      "popularity": 4.285,
      "vote_count": 30,
      "video": false,
      "poster_path": "/aMhT3m6dIporATHJCBhlG3i9iRp.jpg",
      "id": 63484,
      "adult": false,
      "backdrop_path": "/a54hr0fuiuVoOaT3X4zYRwtrtyU.jpg",
      "original_language": "ja",
      "original_title": "インシテミル ７日間のデス・ゲーム",
      "genre_ids": [18, 27, 53],
      "title": "インシテミル 7日間のデス・ゲーム",
      "vote_average": 5.6,
      "overview": "フリーターの理久彦は、謎の美女・祥子に紹介された時給11万2000円のアルバイトに参加する。その内容は、暗鬼館という場所で、男女10人が7日間暮らすという心理実験らしい。理久彦が与えられた部屋に入ると、そこには謎の箱があった。その中には火かき棒が入っている。これは武器なのか…？ 鬼館のルールでは、誰かが“探偵”になり“犯人”を決めなくてはならないという…。",
      "release_date": "2010-10-16"
    },
    {
      "popularity": 4.863,
      "vote_count": 16,
      "video": false,
      "poster_path": "/rpjeY0EL0tfoKHNFpzvVC8PIpbS.jpg",
      "id": 59957,
      "adult": false,
      "backdrop_path": null,
      "original_language": "fr",
      "original_title": "Mères et filles",
      "genre_ids": [35, 18],
      "title": "Mères et filles",
      "vote_average": 6.4,
      "overview": "",
      "release_date": "2010-10-23"
    },
    {
      "popularity": 4.433,
      "vote_count": 3,
      "video": false,
      "poster_path": "/hFyQL9ISeRiotkTeObLR5F8tARr.jpg",
      "id": 102159,
      "adult": false,
      "backdrop_path": null,
      "original_language": "en",
      "original_title": "End Call",
      "genre_ids": [18, 27, 10749],
      "title": "End Call",
      "vote_average": 3.3,
      "overview": "",
      "release_date": "2010-10-16"
    },
    {
      "popularity": 3.354,
      "id": 89825,
      "video": false,
      "vote_count": 21,
      "vote_average": 6.9,
      "title": "おまえうまそうだな",
      "release_date": "2010-10-16",
      "original_language": "ja",
      "original_title": "おまえうまそうだな",
      "genre_ids": [12, 16, 10751],
      "backdrop_path": "/6DJElbEDPa6iTy9QgH0Hy6t7Vz1.jpg",
      "adult": false,
      "overview": "アンキロサウルスのあかちゃんのまえに、ティラノサウルスがあらわれて、「ガオー！　おまえうまそうだな」とちかづいていくと - - - 。",
      "poster_path": "/cIrb97mHxxqXM92gQrZKZMtoxMf.jpg"
    },
    {
      "popularity": 2.363,
      "vote_count": 6,
      "video": false,
      "poster_path": "/pAJGv1Tg7sj8Kzsgvs3gueO8I1u.jpg",
      "id": 133160,
      "adult": false,
      "backdrop_path": null,
      "original_language": "ja",
      "original_title": "一枚のハガキ",
      "genre_ids": [18, 10749, 10752],
      "title": "一枚のハガキ",
      "vote_average": 4.5,
      "overview": "戦争末期に100名の中年兵士が召集された。松山啓太らその兵士達は上官のくじ引きで赴任先が決められ、フィリピンへの赴任が決まり生きて帰って来れないと悟った森川定造はハガキを読んだことを自分の妻、友子に伝えて欲しいとハガキを啓太に託す。終戦後、啓太ら、たった6人の兵士のみが生き残りハガキを元に友子の家を尋ねるが…",
      "release_date": "2010-10-27"
    }
  ]
}
